{
    "parts": [
        {
            "name": "ep_delete_after_delay",
            "hooks": {
                "handleMessage" : "ep_delete_after_delay/delete",
                "expressCreateServer" : "ep_delete_after_delay/delete:registerRoute",
                "eejsBlock_styles": "ep_delete_after_delay/delete"
            }
        }
    ]
}
